{
    "page": 1,
    "total_results": 474,
    "total_pages": 24,
    "results": [
        {
            "popularity": 8.037,
            "vote_count": 142,
            "video": false,
            "poster_path": "\/aPZOt9BR3gnk1RyX924ySq81S4P.jpg",
            "id": 14030,
            "adult": false,
            "backdrop_path": "\/rvsPkUYhWZkAKMb2fnWHw5pNAjZ.jpg",
            "original_language": "en",
            "original_title": "Hello, Dolly!",
            "genre_ids": [
                35,
                10402,
                10749,
                10751
            ],
            "title": "Hello, Dolly!",
            "vote_average": 7.1,
            "overview": "Matchmaker, Dolly Levi takes a trip to Yonkers, New York to see the \"well-known unmarried half-a-millionaire,\" Horace Vandergelder. While there, she convinces him, his two stock clerks and his niece and her beau to go to New York City.",
            "release_date": "1969-12-12"
        },
        {
            "popularity": 6.544,
            "id": 446289,
            "video": false,
            "vote_count": 15,
            "vote_average": 5.7,
            "title": "Hello Again",
            "release_date": "2017-11-08",
            "original_language": "en",
            "original_title": "Hello Again",
            "genre_ids": [
                18,
                10402,
                10749
            ],
            "backdrop_path": "\/4w7BJ1r8ovi1PAoFrpfIJYhfacm.jpg",
            "adult": false,
            "overview": "Ten lost souls slip in and out of one another's arms in a daisy-chained musical exploration of love's bittersweet embrace. A film adaptation of Michael John LaChiusa's celebrated musical, originally based on Arthur Schnitzler's play, La Ronde.",
            "poster_path": "\/bHHt3HIr7MpYiRSw1XNxZm3B3cn.jpg"
        },
        {
            "popularity": 6.805,
            "vote_count": 47,
            "video": false,
            "poster_path": "\/sJFouUfCgHFSUh5OKVSQBSfrfA1.jpg",
            "id": 593961,
            "adult": false,
            "backdrop_path": "\/ptijXES6uMuKfKolTbAeV2LvEVN.jpg",
            "original_language": "tl",
            "original_title": "Hello, Love, Goodbye",
            "genre_ids": [
                18,
                10749
            ],
            "title": "Hello, Love, Goodbye",
            "vote_average": 5.6,
            "overview": "A love story of Joy and Ethan, Filipino workers based in Hong Kong. Ethan, a bartender, is keen on romantically pursuing Joy, a domestic helper who is wholly dedicated to providing for her family.",
            "release_date": "2019-07-31"
        },
        {
            "popularity": 3.078,
            "vote_count": 7,
            "video": false,
            "poster_path": "\/cn0zoCeDoKu0sZqY1ul9w5PLuB1.jpg",
            "id": 31770,
            "adult": false,
            "backdrop_path": "\/34NPO375W4pghcmv009H9pPE4Pm.jpg",
            "original_language": "en",
            "original_title": "Hello, Frisco, Hello",
            "genre_ids": [
                35,
                10402,
                10749
            ],
            "title": "Hello, Frisco, Hello",
            "vote_average": 5.9,
            "overview": "In turn-of-the-century San Francisco, an ambitious vaudevillian takes his quartet from a honky tonk to the big time, while spurning the love of his troupe's star singer for a selfish heiress.",
            "release_date": "1943-03-26"
        },
        {
            "popularity": 10.663,
            "vote_count": 307,
            "video": false,
            "poster_path": "\/eMh0FnCfiTrL5Su9dDHsl84Tyui.jpg",
            "id": 320588,
            "adult": false,
            "backdrop_path": "\/apWB9dpUnxKHYivg69mlP7dWO0K.jpg",
            "original_language": "en",
            "original_title": "Hello, My Name Is Doris",
            "genre_ids": [
                35,
                18,
                10749
            ],
            "title": "Hello, My Name Is Doris",
            "vote_average": 6.3,
            "overview": "A self-help seminar inspires a sixty-something woman to romantically pursue her younger co-worker.",
            "release_date": "2015-11-27"
        },
        {
            "popularity": 6.947,
            "id": 303623,
            "video": false,
            "vote_count": 86,
            "vote_average": 6.5,
            "title": "Hello Ladies: The Movie",
            "release_date": "2014-11-22",
            "original_language": "en",
            "original_title": "Hello Ladies: The Movie",
            "genre_ids": [
                35
            ],
            "backdrop_path": null,
            "adult": false,
            "overview": "When Stuart learns that his British ex-girlfriend is planning to visit Los Angeles with her husband, he sets out to impress them with his glamorous lifestyle, enlisting a Russian model he’s just met to play the role of his beautiful girlfriend. What could go wrong?",
            "poster_path": "\/s8vjHhKNn8gRzEJGGfNf1IhjfSW.jpg"
        },
        {
            "popularity": 7.008,
            "vote_count": 25,
            "video": false,
            "poster_path": "\/2YR2kFW3H9VsMDUo26bznfDLo1r.jpg",
            "id": 628039,
            "adult": false,
            "backdrop_path": "\/6L4LISre666baQA9kFpfRTwDNuJ.jpg",
            "original_language": "en",
            "original_title": "Hello, Privilege. It's Me, Chelsea",
            "genre_ids": [
                99
            ],
            "title": "Hello, Privilege. It's Me, Chelsea",
            "vote_average": 4.9,
            "overview": "In this documentary, Chelsea Handler explores how white privilege impacts US culture – and the ways it’s benefited her own life and career.",
            "release_date": "2019-09-13"
        },
        {
            "popularity": 3.682,
            "vote_count": 31,
            "video": false,
            "poster_path": "\/uwBdAVvrk8iLB30cqu4Z1LXBm4T.jpg",
            "id": 35151,
            "adult": false,
            "backdrop_path": "\/v2QVQs3ndYs8945dqDzglatCB6Y.jpg",
            "original_language": "en",
            "original_title": "Hello Again",
            "genre_ids": [
                35,
                18,
                14,
                878,
                10749
            ],
            "title": "Hello Again",
            "vote_average": 5.5,
            "overview": "Lucy Chadman (Shelley Long) chokes to death and is resurrected by her loopy sister Zelda (Judith Ivey) on the one year anniversary of her death. Lucy, of course, does not believe she has actually been dead and thinks it is an elaborate hoax until she goes to her apartment and discovers her husband (Corbin Bernsen) married to her gold digging best friend, Kim (Sela Ward).",
            "release_date": "1987-11-06"
        },
        {
            "popularity": 7.944,
            "vote_count": 87,
            "video": false,
            "poster_path": "\/p1LzTkVUB9nMPumPan2WchqtKKE.jpg",
            "id": 84281,
            "adult": false,
            "backdrop_path": null,
            "original_language": "en",
            "original_title": "Hello I Must Be Going",
            "genre_ids": [
                35,
                18,
                10749
            ],
            "title": "Hello I Must Be Going",
            "vote_average": 5.9,
            "overview": "Divorced and demoralised, Amy Minsky’s prospects look bleak when she is condemned to move back in with her parents at the age of 35. Everyone wants to help but, as her patience level with advice is plummeting, a bold teenage boy enters her life, igniting her last bit of self-esteem.",
            "release_date": "2012-09-07"
        },
        {
            "popularity": 8.565,
            "vote_count": 75,
            "video": false,
            "poster_path": "\/i8kA5ImH7fWn8JBsilBJPTVdRvv.jpg",
            "id": 39929,
            "adult": false,
            "backdrop_path": "\/e8zBkxXyrnb2MHoImnjXwVji4To.jpg",
            "original_language": "en",
            "original_title": "Hello Mary Lou: Prom Night II",
            "genre_ids": [
                27
            ],
            "title": "Hello Mary Lou: Prom Night II",
            "vote_average": 5.7,
            "overview": "When Hamilton High's Prom Queen of 1957, Mary Lou Maloney is killed by her jilted boyfriend, she comes back for revenge 30 years later. Bill Nordham is now the principle of Hamilton High and his son is about to attend the prom with Vicki Carpenter. However, she is possessed by Mary Lou Maloney after opening a trunk in the school's basement. Now Bill must face the horror he left behind in 1957.",
            "release_date": "1987-10-16"
        },
        {
            "popularity": 5.037,
            "id": 41749,
            "video": false,
            "vote_count": 8,
            "vote_average": 5.1,
            "title": "Hello Down There",
            "release_date": "1969-01-01",
            "original_language": "en",
            "original_title": "Hello Down There",
            "genre_ids": [
                35,
                10402,
                878
            ],
            "backdrop_path": "\/xeO9oEURxere0dtPyfwGRrwJ7Qr.jpg",
            "adult": false,
            "overview": "Given the chance to live in a simulated underwater home for a month, a scientist convinces his family to take advantage of the offer. Once the family agrees to move in, underwater mayhem occurs!",
            "poster_path": "\/yt3Rz22qeV2P9UO6dKSv9pyWXne.jpg"
        },
        {
            "popularity": 3.172,
            "id": 66874,
            "video": false,
            "vote_count": 10,
            "vote_average": 6.6,
            "title": "Hello Aloha",
            "release_date": "1952-02-19",
            "original_language": "en",
            "original_title": "Hello Aloha",
            "genre_ids": [],
            "backdrop_path": null,
            "adult": false,
            "overview": "In the city, Goofy finds his daily job much too stressful so he decides to leave this hustle and bustle for a more peaceful life in the tropics. He finds life there most enjoyable collecting shells from the beach, making a hut in which to live, getting back to nature, and even joining in the big luau feast (with meals such as shark fin soup). Yes, Goofy thinks nothing can go wrong in this paradise...until the natives need to sacrifice someone to their volcano.",
            "poster_path": "\/h8mfu0RQFPunEoVpjOaY4XIqJli.jpg"
        },
        {
            "popularity": 3.741,
            "vote_count": 19,
            "video": false,
            "poster_path": "\/7GJxX1dye1mejL46EmHu4B0mOVo.jpg",
            "id": 361749,
            "adult": false,
            "backdrop_path": "\/shGum1pDigO9IbdH0M1ebePB7TB.jpg",
            "original_language": "en",
            "original_title": "Hello, It's Me",
            "genre_ids": [
                18,
                9648,
                10749,
                10770
            ],
            "title": "Hello, It's Me",
            "vote_average": 7.3,
            "overview": "Two years after her husband dies in a sudden accident, Annie and her two children are left to cope with the loss. Annie can't imagine falling in love again, until she meets a wealthy bachelor who is drawn to her free spirit. Afraid to love again, she longs for guidance when she starts to develop feelings for this new man. Her prayers are answered when she starts receiving communications from her late husband that encourage her to follow her heart.",
            "release_date": "2015-09-27"
        },
        {
            "popularity": 3.665,
            "vote_count": 6,
            "video": false,
            "poster_path": null,
            "id": 117340,
            "adult": false,
            "backdrop_path": null,
            "original_language": "en",
            "original_title": "Hello Lonesome",
            "genre_ids": [
                35,
                18,
                10749
            ],
            "title": "Hello Lonesome",
            "vote_average": 6.8,
            "overview": "Lonely since his wife left him and alienated from his daughter, a cantankerous voice-over artist strikes up an unlikely friendship with his regular deliveryman. Many suburbs away, an elderly widow loses her license to drive and turns to her wry younger neighbor for nostalgic cuddles and comfort. Meanwhile, a young urban sports fanatic meets a girl online and unexpectedly falls in love, though the trials the couple endure prove even more unexpected. Adam Reid's enchanting, compassionate debut weaves together the worlds of six lonely individuals as they negotiate the age-old process of giving and receiving love. It isn't easy, and it never happens the way they expect it, but for these isolated souls, there's an oddball magic in the way they make connections they never imagined.",
            "release_date": "2010-06-01"
        },
        {
            "popularity": 3.487,
            "vote_count": 19,
            "video": false,
            "poster_path": "\/b2KLqfqDMx81CCPUFM7uomT3g4e.jpg",
            "id": 138977,
            "adult": false,
            "backdrop_path": null,
            "original_language": "ru",
            "original_title": "Hello Herman",
            "genre_ids": [
                18
            ],
            "title": "Hello Herman",
            "vote_average": 6.2,
            "overview": "Set in the not so distant future, in Any Town USA, sixteen year old Herman Howards makes a fateful decision. He enters his suburban school and kills thirty nine students, two teachers, and a police officer. Just before his arrest he emails his idol, famous journalist Lax Morales, sending him clips of the shootings captured with Herman's own digital camera. In the clips Herman tells Lax, \"I want to tell my story on your show\". Lax, haunted by his own past, is now face to face with Herman.",
            "release_date": "2012-06-05"
        },
        {
            "popularity": 2.93,
            "id": 410200,
            "video": false,
            "vote_count": 3,
            "vote_average": 5.7,
            "title": "Hello Destroyer",
            "release_date": "2016-09-10",
            "original_language": "en",
            "original_title": "Hello Destroyer",
            "genre_ids": [
                18
            ],
            "backdrop_path": "\/fhE90m1nBtFc0GuwYpEqE08Z4R1.jpg",
            "adult": false,
            "overview": "A young junior hockey player's life is shattered by an in-game act of violence. In an instant his life is abruptly turned upside down; torn from the fraternity of the team and the coinciding position of prominence, he is cast as a pariah and ostracized from the community. As he struggles with the repercussions of the event, desperate to find a means of reconciliation and a sense of identity, his personal journey ends up illuminating troubling systemic issues around violence.",
            "poster_path": "\/tfDHVGKAzEpqa4fO5F8NORatg3k.jpg"
        },
        {
            "popularity": 3.225,
            "vote_count": 0,
            "video": false,
            "poster_path": null,
            "id": 615127,
            "adult": false,
            "backdrop_path": null,
            "original_language": "en",
            "original_title": "Hello Kitty",
            "genre_ids": [
                16
            ],
            "title": "Hello Kitty",
            "vote_average": 0,
            "overview": "Ploy Unknown.An animated feature film based on the Hello Kitty character.",
            "release_date": "2022-12-31"
        },
        {
            "popularity": 3.849,
            "id": 25484,
            "video": false,
            "vote_count": 19,
            "vote_average": 6.4,
            "title": "Michael McIntyre: Hello Wembley",
            "release_date": "2009-11-16",
            "original_language": "en",
            "original_title": "Michael McIntyre: Hello Wembley",
            "genre_ids": [
                35
            ],
            "backdrop_path": null,
            "adult": false,
            "overview": "Michael McIntyre, the comedy sensation of 2009, is back. Michael McIntyre’s meteoric rise to fame took the comedy world by storm last year. He sold out over 100 tour dates around the UK and his first DVD release Michael McIntyre Live & Laughing became the fastest selling debut stand up DVD of all time. Michael sets off on his biggest tour to date taking his new show to arenas around the UK.",
            "poster_path": "\/xAiBqtrtrOTooQYIJNYMvBLfc2w.jpg"
        },
        {
            "popularity": 1.978,
            "vote_count": 12,
            "video": false,
            "poster_path": "\/2NXPd52eDEFpdYcFZSYDbOioyR5.jpg",
            "id": 20365,
            "adult": false,
            "backdrop_path": "\/bNYxr3GGXRthtDRFCnloXO4r3xC.jpg",
            "original_language": "hi",
            "original_title": "Hello",
            "genre_ids": [
                18
            ],
            "title": "Hello",
            "vote_average": 3.8,
            "overview": "Call-center workers receive a phone call from God.",
            "release_date": "2008-10-10"
        },
        {
            "popularity": 2.716,
            "id": 425518,
            "video": false,
            "vote_count": 4,
            "vote_average": 9,
            "title": "Hello, Again",
            "release_date": "2014-09-19",
            "original_language": "en",
            "original_title": "Hello, Again",
            "genre_ids": [
                18
            ],
            "backdrop_path": "\/sqo5OZwIh7ApYAJwy6D0VR5AuPY.jpg",
            "adult": false,
            "overview": "Owen, after a sleepless night from his Mothers funeral the day before, decides to avoid his father and visit her grave. Through a misunderstanding he meets Maura, who's visiting her recently deceased Father's grave. Together they try to find a way to connect with the loved ones they've lost.",
            "poster_path": "\/n10wMRSZj64KztxhsDmSMgwXTnE.jpg"
        }
    ]
}